#Generation
signal_pdf_mean = 5279.61 L(5275 - 5285)
signal_pdf_sigma = 10 L(0 - 20)                

#Fit
signal_pdf_mean_fit = 5279.61 L(5275 - 5285)
signal_pdf_sigma_fit = 10 L(0 - 20)


sig_yield = 1633 L(-INF - +INF)
